runId,runUID,startDateTime,startDateLocal,seConfigId,runGroupId,persistenceVerbosity,runSeriesName,repId,numSuggestibleReps,numSuggestibleAccounts,numEvaluatedAccounts,numErrorsAndWarnings,elapsedSecsQueries,elapsedSecsCompute,elapsedSecsPersist,elapsedSecsTotal,runSummaryReport
1,1,2018-02-01,2018-02-01,1,NULL,T,a,NULL,NULL,NULL,NULL,NULL,NULL,NULL,NULL,NULL,sum
2,2,2018-02-02,2018-02-02,1,NULL,T,a,NULL,NULL,NULL,NULL,NULL,NULL,NULL,NULL,NULL,sum
3,3,2018-02-03,2018-02-03,1,NULL,T,a,NULL,NULL,NULL,NULL,NULL,NULL,NULL,NULL,NULL,sum
