STG_Call2_Key,Call2_vod__c,OwnerId,IsDeleted,CreatedDate,LastModifiedDate,Account_vod__c,Status_vod__c,Parent_Address_vod__c,Call_Datetime_vod__c,Call_Date_vod__c,Call_Type_vod__c,Duration_vod__c,versionNumber,effectiveStartDate,effectiveEndDate,arc_createdAt,arc_updatedAt
unittestmock1,unittestmockint1,005A0000000MgcGIAS,0,2017-09-28 10:20:00,2017-09-28 10:20:00,001A0000002pa4XIAQ,Saved_vod,,2017-09-30 10:19:00,2017-09-30,Detail Only,30,1,2017-09-28 10:20:00,2017-09-30 16:20:00,2017-09-28 10:20:00,2017-09-28 10:20:00
unittestmock2,unittestmockint1,005A0000000MgcGIAS,0,2017-09-28 10:20:00,2017-09-30 16:20:00,001A0000002pa4XIAQ,Submitted_vod,,2017-09-30 10:19:00,2017-09-30,Detail Only,30,2,2017-09-30 16:20:00,2050-01-01 00:00:00,2017-09-30 16:20:00,2017-09-30 16:20:00
unittestmock3,unittestmockint2,005A0000000MgcGIAS,0,2017-09-01 10:20:00,2017-09-01 10:20:00,001A0000002pa4XIAQ,Saved_vod,,2017-09-15 10:20:00,2017-09-15,Event,30,1,2017-09-01 10:20:00,2050-01-01 00:00:00,2017-09-01 10:20:00,2017-09-01 10:20:00
unittestmock4,unittestmockint3,005A0000000MgcGIAS,0,2017-09-01 10:20:00,2017-09-01 10:20:00,001A0000002pa4XIAQ,Saved_vod,,2017-12-15 10:20:00,2017-12-15,Detail Only,30,1,2017-09-01 10:20:00,2050-01-01 00:00:00,2017-09-01 10:20:00,2017-09-01 10:20:00
unittestmock5,unittestmockint4,005A0000000MgcGIAS,0,2017-09-01 10:20:00,2017-09-01 10:20:00,001A0000002pa4XIAQ,Submitted_vod,,2017-09-01 10:20:00,2017-09-01,Detail Only,30,1,2017-09-01 10:20:00,2050-01-01 00:00:00,2017-09-01 10:20:00,2017-09-01 10:20:00
unittestmock6,unittestmockint5,005A0000000MgcGIAS,0,2017-12-01 10:20:00,2017-12-01 10:20:00,001A0000002pa4XIAQ,Saved_vod,,2017-09-15 10:20:00,2017-09-15,Detail Only,30,1,2017-12-01 10:20:00,2050-01-01 00:00:00,2017-12-01 10:20:00,2017-12-01 10:20:00
unittestmock7,unittestmockint6,00580000002EZNTAA4,0,2017-09-01 10:20:00,2017-09-01 10:20:00,001A0000002omeaIAA,Saved_vod,,2017-09-02 10:20:00,2017-09-02,Detail Only,30,1,2017-09-01 10:20:00,2050-01-01 00:00:00,2017-09-01 10:20:00,2017-09-01 10:20:00
unittestmock8,unittestmockint7,00580000002EZNTAA4,0,2017-09-01 10:20:00,2017-09-01 10:20:00,001A0000002qM1DIAU,Saved_vod,,2017-09-02 10:20:00,2017-09-02,Detail Only,30,1,2017-09-01 10:20:00,2017-09-02 10:20:00,2017-09-01 10:20:00,2017-09-01 10:20:00
unittestmock9,unittestmockint7,00580000002EZNTAA4,0,2017-09-01 10:20:00,2017-09-02 10:20:00,001A0000002qM1DIAU,Saved_vod,,2017-09-02 10:20:00,2017-09-02,Call Only,30,2,2017-09-01 10:20:00,2050-01-01 00:00:00,2017-09-02 10:20:00,2017-09-02 10:20:00
unittestmock10,unittestmockint8,00580000002EZNTAA4,0,2017-09-01 10:20:00,2017-09-01 10:20:00,001A0000002rTnOIAU,Saved_vod,,2017-09-02 10:20:00,2017-09-02,Detail Only,30,1,2017-09-01 10:20:00,2017-09-02 10:20:00,2017-09-01 10:20:00,2017-09-01 10:20:00
unittestmock11,unittestmockint8,00580000002EZNTAA4,0,2017-09-01 10:20:00,2017-09-02 10:20:00,001A0000002rTnOIAU,Saved_vod,,2017-09-03 10:20:00,2017-09-03,Call Only,30,2,2017-09-01 10:20:00,2050-01-01 00:00:00,2017-09-02 10:20:00,2017-09-02 10:20:00
unittestmock12,unittestmockint9,00580000002EZNTAA4,0,2017-09-01 10:20:00,2017-09-01 10:20:00,001A0000010xDCXIA2,Saved_vod,,2017-09-02 10:20:00,2017-09-02,Detail Only,30,1,2017-09-01 10:20:00,2017-09-02 10:20:00,2017-09-01 10:20:00,2017-09-01 10:20:00
unittestmock13,unittestmockint9,00580000002EZNTAA4,0,2017-09-01 10:20:00,2017-09-02 10:20:00,001A0000010xDCXIA2,Saved_vod,,2017-09-02 10:20:00,2017-09-02,Call Only,30,2,2017-09-01 10:20:00,2017-09-02 11:20:00,2017-09-02 10:20:00,2017-09-02 10:20:00
unittestmock14,unittestmockint9,00580000002EZNTAA4,0,2017-09-01 10:20:00,2017-09-02 11:20:00,001A0000010xDCXIA2,Saved_vod,,2017-09-03 10:20:00,2017-09-03,Call Only,30,3,2017-09-02 11:20:00,2050-01-01 00:00:00,2017-09-02 11:20:00,2017-09-02 11:20:00
unittestmock15,unittestmockint10,00580000002EZNTAA4,0,2017-09-01 10:20:00,2017-09-01 10:20:00,001A0000002nh5pIAA,Saved_vod,,2017-09-02 10:20:00,2017-09-02,Detail Only,30,1,2017-09-01 10:20:00,2017-09-02 10:20:00,2017-09-01 10:20:00,2017-09-01 10:20:00
unittestmock16,unittestmockint10,00580000002EZNTAA4,0,2017-09-01 10:20:00,2017-09-02 10:20:00,001A0000002nh5pIAA,Saved_vod,,2017-09-02 10:20:00,2017-09-02,Call Only,30,2,2017-09-01 10:20:00,2017-09-02 11:20:00,2017-09-02 10:20:00,2017-09-02 10:20:00
unittestmock17,unittestmockint10,00580000002EZNTAA4,0,2017-09-01 10:20:00,2017-09-02 11:20:00,001A0000002nh5pIAA,Saved_vod,,2017-09-03 10:20:00,2017-09-03,Call Only,30,3,2017-09-02 11:20:00,2017-09-02 12:20:00,2017-09-02 11:20:00,2017-09-02 11:20:00
unittestmock18,unittestmockint10,00580000002EZNTAA4,0,2017-09-01 10:20:00,2017-09-02 12:20:00,001A0000002nh5pIAA,Saved_vod,,2017-09-03 10:20:00,2017-09-03,Detail Only,30,4,2017-09-02 12:20:00,2050-01-01 00:00:00,2017-09-02 12:20:00,2017-09-02 12:20:00
unittestmock19,unittestmockint11,00580000002EZNTAA4,0,2017-09-01 10:20:00,2017-09-01 10:20:00,001A0000013R2YSIA0,Saved_vod,,2017-09-02 10:20:00,2017-09-02,Detail Only,30,1,2017-09-01 10:20:00,2050-01-01 00:00:00,2017-09-01 10:20:00,2017-09-01 10:20:00
unittestmock20,unittestmockint12,00580000002EZNTAA4,0,2017-09-01 10:20:00,2017-09-01 10:20:00,001A0000001xwKsIAI,Submitted_vod,,2017-09-01 10:20:00,2017-09-01,Detail Only,30,1,2017-09-01 10:20:00,2050-01-01 00:00:00,2017-09-01 10:20:00,2017-09-01 10:20:00
unittestmock21,unittestmockint13,00580000002EZNTAA4,0,2017-09-01 10:20:00,2017-09-01 10:20:00,001A0000001xwKsIAI,Saved_vod,,2017-09-02 10:20:00,2017-09-02,Detail Only,30,1,2017-09-01 10:20:00,2017-09-02 10:20:00,2017-09-01 10:20:00,2017-09-01 10:20:00
unittestmock22,unittestmockint13,00580000002EZNTAA4,0,2017-09-01 10:20:00,2017-09-02 10:20:00,001A0000001xwKsIAI,Submitted_vod,,2017-09-02 10:20:00,2017-09-02,Detail Only,30,1,2017-09-02 10:20:00,2050-01-01 00:00:00,2017-09-02 10:20:00,2017-09-02 10:20:00
unittestmock23,unittestmockint14,00580000002EZNTAA4,0,2017-09-01 10:20:00,2017-09-01 10:20:00,001A0000001xwKsIAI,Saved_vod,,2017-09-02 10:20:00,2017-09-02,Call Only,30,1,2017-09-01 10:20:00,2017-09-01 11:20:00,2017-09-01 10:20:00,2017-09-01 10:20:00
unittestmock24,unittestmockint14,00580000002EZNTAA4,0,2017-09-01 10:20:00,2017-09-01 11:20:00,001A0000001xwKsIAI,Saved_vod,,2017-09-02 10:20:00,2017-09-02,Detail Only,30,1,2017-09-01 11:20:00,2017-09-02 10:20:00,2017-09-01 11:20:00,2017-09-01 11:20:00
unittestmock25,unittestmockint14,00580000002EZNTAA4,0,2017-09-01 10:20:00,2017-09-02 10:20:00,001A0000001xwKsIAI,Submitted_vod,,2017-09-02 10:20:00,2017-09-02,Detail Only,30,1,2017-09-02 10:20:00,2050-01-01 00:00:00,2017-09-02 10:20:00,2017-09-02 10:20:00
unittestmock26,unittestmockint15,00580000002EZNTAA4,0,2017-09-01 10:20:00,2017-09-01 10:20:00,001A0000001xwKsIAI,Saved_vod,,2017-09-03 10:20:00,2017-09-03,Call Only,30,1,2017-09-01 10:20:00,2017-09-01 11:20:00,2017-09-01 10:20:00,2017-09-01 10:20:00
unittestmock27,unittestmockint15,00580000002EZNTAA4,0,2017-09-01 10:20:00,2017-09-01 11:20:00,001A0000001xwKsIAI,Saved_vod,,2017-09-02 10:20:00,2017-09-02,Detail Only,30,1,2017-09-01 11:20:00,2017-09-02 10:20:00,2017-09-01 11:20:00,2017-09-01 11:20:00
unittestmock28,unittestmockint15,00580000002EZNTAA4,0,2017-09-01 10:20:00,2017-09-02 10:20:00,001A0000001xwKsIAI,Submitted_vod,,2017-09-02 10:20:00,2017-09-02,Detail Only,30,1,2017-09-02 10:20:00,2050-01-01 00:00:00,2017-09-02 10:20:00,2017-09-02 10:20:00
