﻿"productUID","channelUID","goal","predictor","predictorValue","probability","count","explanationFit","source","createdAt","updatedAt"
a00A0000000quNsIAI,SEND_CHANNEL,CLICK,aetnaTop3ComPlanFlag_akt,"",0.002,,,ACCOUNT_PRODUCT,2019-07-26 14:30:15,2019-07-26 14:30:15
a00A0000000quNsIAI,SEND_CHANNEL,CLICK,barrierLyrica_akt,"",0.111,,,ACCOUNT,2019-07-26 14:30:15,2019-07-26 14:30:15
a00A0000000quNsIAI,SEND_CHANNEL,CLICK,barrierLyricaTop1_akt,"",0.006,,,ACCOUNT,2019-07-26 14:30:15,2019-07-26 14:30:15
a00A0000000quNsIAI,SEND_CHANNEL,CLICK,barrierLyricaTop2_akt,"",0.096,,,ACCOUNT,2019-07-26 14:30:15,2019-07-26 14:30:15
a00A0000000quNsIAI,SEND_CHANNEL,CLICK,barrierLyricaTop3_akt,"",0.917,,,ACCOUNT,2019-07-26 14:30:15,2019-07-26 14:30:15
a00A0000000quNsIAI,SEND_CHANNEL,CLICK,bosSegment_akt,"",0,,,ACCOUNT,2019-07-26 14:30:15,2019-07-26 14:30:15
a00A0000000quNsIAI,SEND_CHANNEL,CLICK,brandFlag_akt,"",0.078,,,ACCOUNT,2019-07-26 14:30:15,2019-07-26 14:30:15
a00A0000000quNsIAI,SEND_CHANNEL,CLICK,channelPreferenceNeg_akt,"",0.004,,,ACCOUNT,2019-07-26 14:30:15,2019-07-26 14:30:15
a00A0000000quNsIAI,SEND_CHANNEL,CLICK,channelPreferencePos_akt,"",0.003,,,ACCOUNT,2019-07-26 14:30:15,2019-07-26 14:30:15
a00A0000000quNsIAI,SEND_CHANNEL,CLICK,chxComPct_akt,"",0.035,,,ACCOUNT_PRODUCT,2019-07-26 14:30:15,2019-07-26 14:30:15
a00A0000000quNsIAI,SEND_CHANNEL,CLICK,chxComPlans_akt,"",0.036,,,ACCOUNT_PRODUCT,2019-07-26 14:30:15,2019-07-26 14:30:15
a00A0000000quNsIAI,SEND_CHANNEL,CLICK,chxEucBalanceFlag_akt,"",0.048,,,ACCOUNT,2019-07-26 14:30:15,2019-07-26 14:30:15
a00A0000000quNsIAI,SEND_CHANNEL,CLICK,chxKeyComTrgt_akt,"",0.004,,,ACCOUNT_PRODUCT,2019-07-26 14:30:15,2019-07-26 14:30:15
a00A0000000quNsIAI,SEND_CHANNEL,CLICK,chxR1wNRx_akt,"",0.004,,,ACCOUNT_PRODUCT,2019-07-26 14:30:15,2019-07-26 14:30:15
a00A0000000quNsIAI,SEND_CHANNEL,CLICK,chxR2_13wTRx_akt,"",0.017,,,ACCOUNT_PRODUCT,2019-07-26 14:30:15,2019-07-26 14:30:15
a00A0000000quNsIAI,SEND_CHANNEL,CLICK,chxZeroCostSharePct_akt,"",0.055,,,ACCOUNT_PRODUCT,2019-07-26 14:30:15,2019-07-26 14:30:15
a00A0000000quNsIAI,SEND_CHANNEL,CLICK,dblChantix13wCopayDrops_akt,"",0.003,,,ACCOUNT_PRODUCT,2019-07-26 14:30:15,2019-07-26 14:30:15
a00A0000000quNsIAI,SEND_CHANNEL,CLICK,dblChantix13wCopayRedemptions_akt,"",0.003,,,ACCOUNT_PRODUCT,2019-07-26 14:30:15,2019-07-26 14:30:15
a00A0000000quNsIAI,SEND_CHANNEL,CLICK,dblLyrComAccessPct_akt,"",0.355,,,ACCOUNT_PRODUCT,2019-07-26 14:30:15,2019-07-26 14:30:15
a00A0000000quNsIAI,SEND_CHANNEL,CLICK,dblLyrMedDAccessPct_akt,"",0.02,,,ACCOUNT_PRODUCT,2019-07-26 14:30:15,2019-07-26 14:30:15
a00A0000000quNsIAI,SEND_CHANNEL,CLICK,dblLyrOverallAccessPct_akt,"",0.033,,,ACCOUNT_PRODUCT,2019-07-26 14:30:15,2019-07-26 14:30:15
a00A0000000quNsIAI,SEND_CHANNEL,CLICK,dblNRTCurr3mTRxShare_akt,"",0.046,,,ACCOUNT_PRODUCT,2019-07-26 14:30:15,2019-07-26 14:30:15
a00A0000000quNsIAI,SEND_CHANNEL,CLICK,driverLyrica_akt,"",0.076,,,ACCOUNT,2019-07-26 14:30:15,2019-07-26 14:30:15
a00A0000000quNsIAI,SEND_CHANNEL,CLICK,driverLyricaTop1_akt,"",0.009,,,ACCOUNT,2019-07-26 14:30:15,2019-07-26 14:30:15
a00A0000000quNsIAI,SEND_CHANNEL,CLICK,driverLyricaTop2_akt,"",0.109,,,ACCOUNT,2019-07-26 14:30:15,2019-07-26 14:30:15
a00A0000000quNsIAI,SEND_CHANNEL,CLICK,driverLyricaTop3_akt,"",0.672,,,ACCOUNT,2019-07-26 14:30:15,2019-07-26 14:30:15
a00A0000000quNsIAI,SEND_CHANNEL,CLICK,duaveeNRxQuintile_akt,"",0,,,ACCOUNT,2019-07-26 14:30:15,2019-07-26 14:30:15
a00A0000000quNsIAI,SEND_CHANNEL,CLICK,email_akt,"",1,,,ACCOUNT,2019-07-26 14:30:15,2019-07-26 14:30:15
a00A0000000quNsIAI,SEND_CHANNEL,CLICK,emailUnsubscribe_akt,"",0.006,,,ACCOUNT_PRODUCT,2019-07-26 14:30:15,2019-07-26 14:30:15
a00A0000000quNsIAI,SEND_CHANNEL,CLICK,embedaBrandFlag_akt,"",0.007,,,ACCOUNT,2019-07-26 14:30:15,2019-07-26 14:30:15
a00A0000000quNsIAI,SEND_CHANNEL,CLICK,enumBrandedPreference_akt,"",0.01,,,ACCOUNT,2019-07-26 14:30:15,2019-07-26 14:30:15
a00A0000000quNsIAI,SEND_CHANNEL,CLICK,enumChxZDCPHotList_akt,"",0.022,,,ACCOUNT,2019-07-26 14:30:15,2019-07-26 14:30:15
a00A0000000quNsIAI,SEND_CHANNEL,CLICK,enumCL1RemainingODFlag_akt,"",0.007,,,ACCOUNT,2019-07-26 14:30:15,2019-07-26 14:30:15
a00A0000000quNsIAI,SEND_CHANNEL,CLICK,enumDuloxetinePreference_akt,"",0.019,,,ACCOUNT,2019-07-26 14:30:15,2019-07-26 14:30:15
a00A0000000quNsIAI,SEND_CHANNEL,CLICK,enumHcpSpecialty_akt,"",0.117,,,ACCOUNT,2019-07-26 14:30:15,2019-07-26 14:30:15
a00A0000000quNsIAI,SEND_CHANNEL,CLICK,enumLyrDosingCode_akt,"",0.025,,,ACCOUNT,2019-07-26 14:30:15,2019-07-26 14:30:15
a00A0000000quNsIAI,SEND_CHANNEL,CLICK,enumLyrInsightCode_akt,"",0.094,,,ACCOUNT,2019-07-26 14:30:15,2019-07-26 14:30:15
a00A0000000quNsIAI,SEND_CHANNEL,CLICK,enumLyrInsightSlideCode_akt,"",0.006,,,ACCOUNT,2019-07-26 14:30:15,2019-07-26 14:30:15
a00A0000000quNsIAI,SEND_CHANNEL,CLICK,enumParentSpecialty_akt,"",0.227,,,ACCOUNT,2019-07-26 14:30:15,2019-07-26 14:30:15
a00A0000000quNsIAI,SEND_CHANNEL,CLICK,enumPHR1_PHR2BrandPriorityOrder_akt,"",0.004,,,ACCOUNT,2019-07-26 14:30:15,2019-07-26 14:30:15
a00A0000000quNsIAI,SEND_CHANNEL,CLICK,enumPHR3BrandPriorityOrder_akt,"",0.007,,,ACCOUNT,2019-07-26 14:30:15,2019-07-26 14:30:15
a00A0000000quNsIAI,SEND_CHANNEL,CLICK,enumSHR_DSRBrandPriorityOrder_akt,"",0.005,,,ACCOUNT,2019-07-26 14:30:15,2019-07-26 14:30:15
a00A0000000quNsIAI,SEND_CHANNEL,CLICK,enumVTETargetPriority_akt,"",0.036,,,ACCOUNT,2019-07-26 14:30:15,2019-07-26 14:30:15
a00A0000000quNsIAI,SEND_CHANNEL,CLICK,estringTRxQuintile_akt,"",0,,,ACCOUNT,2019-07-26 14:30:15,2019-07-26 14:30:15
a00A0000000quNsIAI,SEND_CHANNEL,CLICK,eucrisaQuintile_akt,"",0.048,,,ACCOUNT,2019-07-26 14:30:15,2019-07-26 14:30:15
a00A0000000quNsIAI,SEND_CHANNEL,CLICK,facilityId,"",0.23,,,ACCOUNT,2019-07-26 14:30:15,2019-07-26 14:30:15
a00A0000000quNsIAI,SEND_CHANNEL,CLICK,fmdpn_balance_akt,"",0,,,ACCOUNT_PRODUCT,2019-07-26 14:30:15,2019-07-26 14:30:15
a00A0000000quNsIAI,SEND_CHANNEL,CLICK,hasSharedTargetC1C3_akt,"",0.003,,,ACCOUNT,2019-07-26 14:30:15,2019-07-26 14:30:15
a00A0000000quNsIAI,SEND_CHANNEL,CLICK,hasSharedTargetC2C3_akt,"",0.002,,,ACCOUNT,2019-07-26 14:30:15,2019-07-26 14:30:15
a00A0000000quNsIAI,SEND_CHANNEL,CLICK,LoTProxy_akt,"",0.029,,,ACCOUNT_PRODUCT,2019-07-26 14:30:15,2019-07-26 14:30:15
a00A0000000quNsIAI,SEND_CHANNEL,CLICK,LyrChannelFocus_akt,"",0.002,,,ACCOUNT,2019-07-26 14:30:15,2019-07-26 14:30:15
a00A0000000quNsIAI,SEND_CHANNEL,CLICK,nrx3moChange_akt,"",0.086,,,ACCOUNT_PRODUCT,2019-07-26 14:30:15,2019-07-26 14:30:15
a00A0000000quNsIAI,SEND_CHANNEL,CLICK,nrx4wChange_akt,"",0.01,,,ACCOUNT_PRODUCT,2019-07-26 14:30:15,2019-07-26 14:30:15
a00A0000000quNsIAI,SEND_CHANNEL,CLICK,premarinOralNRxQuintile_akt,"",0.001,,,ACCOUNT,2019-07-26 14:30:15,2019-07-26 14:30:15
a00A0000000quNsIAI,SEND_CHANNEL,CLICK,priorityChantix_akt,"",0.005,,,ACCOUNT_PRODUCT,2019-07-26 14:30:15,2019-07-26 14:30:15
a00A0000000quNsIAI,SEND_CHANNEL,CLICK,productPositionList_akt,"",0.026,,,ACCOUNT,2019-07-26 14:30:15,2019-07-26 14:30:15
a00A0000000quNsIAI,SEND_CHANNEL,CLICK,pvcTRxQuintile_akt,"",0.001,,,ACCOUNT,2019-07-26 14:30:15,2019-07-26 14:30:15
a00A0000000quNsIAI,SEND_CHANNEL,CLICK,trx3moChange_akt,"",0.06,,,ACCOUNT_PRODUCT,2019-07-26 14:30:15,2019-07-26 14:30:15
a00A0000000quNsIAI,SEND_CHANNEL,CLICK,trx4wChange_akt,"",0.024,,,ACCOUNT_PRODUCT,2019-07-26 14:30:15,2019-07-26 14:30:15
a00A0000000quNsIAI,SEND_CHANNEL,CLICK,visitsGoalChx_akt,"",0.012,,,ACCOUNT_PRODUCT,2019-07-26 14:30:15,2019-07-26 14:30:15
a00A0000000quNsIAI,SEND_CHANNEL,CLICK,visitsRemainingChx_akt,"",0.018,,,ACCOUNT_PRODUCT,2019-07-26 14:30:15,2019-07-26 14:30:15
a00A0000000quNsIAI,SEND_CHANNEL,CLICK,whBrandPriorities_akt,"",0.001,,,ACCOUNT,2019-07-26 14:30:15,2019-07-26 14:30:15
a00A0000000quNsIAI,SEND_CHANNEL,CLICK,xtandiBrandPriority_akt,"",0.075,,,ACCOUNT,2019-07-26 14:30:15,2019-07-26 14:30:15
a00A0000000quNsIAI,SEND_CHANNEL,OPEN,aetnaTop3ComPlanFlag_akt,"",0.002,,,ACCOUNT_PRODUCT,2019-07-26 14:29:01,2019-07-26 14:29:01
a00A0000000quNsIAI,SEND_CHANNEL,OPEN,barrierLyrica_akt,"",0.046,,,ACCOUNT,2019-07-26 14:29:01,2019-07-26 14:29:01
a00A0000000quNsIAI,SEND_CHANNEL,OPEN,barrierLyricaTop1_akt,"",0.006,,,ACCOUNT,2019-07-26 14:29:01,2019-07-26 14:29:01
a00A0000000quNsIAI,SEND_CHANNEL,OPEN,barrierLyricaTop2_akt,"",0.043,,,ACCOUNT,2019-07-26 14:29:01,2019-07-26 14:29:01
a00A0000000quNsIAI,SEND_CHANNEL,OPEN,barrierLyricaTop3_akt,"",0.397,,,ACCOUNT,2019-07-26 14:29:01,2019-07-26 14:29:01
a00A0000000quNsIAI,SEND_CHANNEL,OPEN,bosSegment_akt,"",0,,,ACCOUNT,2019-07-26 14:29:01,2019-07-26 14:29:01
a00A0000000quNsIAI,SEND_CHANNEL,OPEN,brandFlag_akt,"",0.024,,,ACCOUNT,2019-07-26 14:29:01,2019-07-26 14:29:01
a00A0000000quNsIAI,SEND_CHANNEL,OPEN,channelPreferenceNeg_akt,"",0.003,,,ACCOUNT,2019-07-26 14:29:01,2019-07-26 14:29:01
a00A0000000quNsIAI,SEND_CHANNEL,OPEN,channelPreferencePos_akt,"",0.001,,,ACCOUNT,2019-07-26 14:29:01,2019-07-26 14:29:01
a00A0000000quNsIAI,SEND_CHANNEL,OPEN,chxComPct_akt,"",0.018,,,ACCOUNT_PRODUCT,2019-07-26 14:29:01,2019-07-26 14:29:01
a00A0000000quNsIAI,SEND_CHANNEL,OPEN,chxComPlans_akt,"",0.187,,,ACCOUNT_PRODUCT,2019-07-26 14:29:01,2019-07-26 14:29:01
a00A0000000quNsIAI,SEND_CHANNEL,OPEN,chxEucBalanceFlag_akt,"",0.024,,,ACCOUNT,2019-07-26 14:29:01,2019-07-26 14:29:01
a00A0000000quNsIAI,SEND_CHANNEL,OPEN,chxKeyComTrgt_akt,"",0.018,,,ACCOUNT_PRODUCT,2019-07-26 14:29:01,2019-07-26 14:29:01
a00A0000000quNsIAI,SEND_CHANNEL,OPEN,chxR1wNRx_akt,"",0.006,,,ACCOUNT_PRODUCT,2019-07-26 14:29:01,2019-07-26 14:29:01
a00A0000000quNsIAI,SEND_CHANNEL,OPEN,chxR2_13wTRx_akt,"",0.106,,,ACCOUNT_PRODUCT,2019-07-26 14:29:01,2019-07-26 14:29:01
a00A0000000quNsIAI,SEND_CHANNEL,OPEN,chxZeroCostSharePct_akt,"",0.013,,,ACCOUNT_PRODUCT,2019-07-26 14:29:01,2019-07-26 14:29:01
a00A0000000quNsIAI,SEND_CHANNEL,OPEN,dblChantix13wCopayDrops_akt,"",0.003,,,ACCOUNT_PRODUCT,2019-07-26 14:29:01,2019-07-26 14:29:01
a00A0000000quNsIAI,SEND_CHANNEL,OPEN,dblChantix13wCopayRedemptions_akt,"",0.003,,,ACCOUNT_PRODUCT,2019-07-26 14:29:01,2019-07-26 14:29:01
a00A0000000quNsIAI,SEND_CHANNEL,OPEN,dblLyrComAccessPct_akt,"",0.053,,,ACCOUNT_PRODUCT,2019-07-26 14:29:01,2019-07-26 14:29:01
a00A0000000quNsIAI,SEND_CHANNEL,OPEN,dblLyrMedDAccessPct_akt,"",0.011,,,ACCOUNT_PRODUCT,2019-07-26 14:29:01,2019-07-26 14:29:01
a00A0000000quNsIAI,SEND_CHANNEL,OPEN,dblLyrOverallAccessPct_akt,"",0.013,,,ACCOUNT_PRODUCT,2019-07-26 14:29:01,2019-07-26 14:29:01
a00A0000000quNsIAI,SEND_CHANNEL,OPEN,dblNRTCurr3mTRxShare_akt,"",0.012,,,ACCOUNT_PRODUCT,2019-07-26 14:29:01,2019-07-26 14:29:01
a00A0000000quNsIAI,SEND_CHANNEL,OPEN,driverLyrica_akt,"",0.048,,,ACCOUNT,2019-07-26 14:29:01,2019-07-26 14:29:01
a00A0000000quNsIAI,SEND_CHANNEL,OPEN,driverLyricaTop1_akt,"",0.002,,,ACCOUNT,2019-07-26 14:29:01,2019-07-26 14:29:01
a00A0000000quNsIAI,SEND_CHANNEL,OPEN,driverLyricaTop2_akt,"",0.035,,,ACCOUNT,2019-07-26 14:29:01,2019-07-26 14:29:01
a00A0000000quNsIAI,SEND_CHANNEL,OPEN,driverLyricaTop3_akt,"",0.259,,,ACCOUNT,2019-07-26 14:29:01,2019-07-26 14:29:01
a00A0000000quNsIAI,SEND_CHANNEL,OPEN,duaveeNRxQuintile_akt,"",0,,,ACCOUNT,2019-07-26 14:29:01,2019-07-26 14:29:01
a00A0000000quNsIAI,SEND_CHANNEL,OPEN,email_akt,"",1,,,ACCOUNT,2019-07-26 14:29:01,2019-07-26 14:29:01
a00A0000000quNsIAI,SEND_CHANNEL,OPEN,emailUnsubscribe_akt,"",0.013,,,ACCOUNT_PRODUCT,2019-07-26 14:29:01,2019-07-26 14:29:01
a00A0000000quNsIAI,SEND_CHANNEL,OPEN,embedaBrandFlag_akt,"",0.003,,,ACCOUNT,2019-07-26 14:29:01,2019-07-26 14:29:01
a00A0000000quNsIAI,SEND_CHANNEL,OPEN,enumBrandedPreference_akt,"",0.003,,,ACCOUNT,2019-07-26 14:29:01,2019-07-26 14:29:01
a00A0000000quNsIAI,SEND_CHANNEL,OPEN,enumChxZDCPHotList_akt,"",0.001,,,ACCOUNT,2019-07-26 14:29:01,2019-07-26 14:29:01
a00A0000000quNsIAI,SEND_CHANNEL,OPEN,enumCL1RemainingODFlag_akt,"",0.004,,,ACCOUNT,2019-07-26 14:29:01,2019-07-26 14:29:01
a00A0000000quNsIAI,SEND_CHANNEL,OPEN,enumDuloxetinePreference_akt,"",0.005,,,ACCOUNT,2019-07-26 14:29:01,2019-07-26 14:29:01
a00A0000000quNsIAI,SEND_CHANNEL,OPEN,enumHcpSpecialty_akt,"",0.127,,,ACCOUNT,2019-07-26 14:29:01,2019-07-26 14:29:01
a00A0000000quNsIAI,SEND_CHANNEL,OPEN,enumLyrDosingCode_akt,"",0.009,,,ACCOUNT,2019-07-26 14:29:01,2019-07-26 14:29:01
a00A0000000quNsIAI,SEND_CHANNEL,OPEN,enumLyrInsightCode_akt,"",0.036,,,ACCOUNT,2019-07-26 14:29:01,2019-07-26 14:29:01
a00A0000000quNsIAI,SEND_CHANNEL,OPEN,enumLyrInsightSlideCode_akt,"",0.004,,,ACCOUNT,2019-07-26 14:29:01,2019-07-26 14:29:01
a00A0000000quNsIAI,SEND_CHANNEL,OPEN,enumParentSpecialty_akt,"",0.073,,,ACCOUNT,2019-07-26 14:29:01,2019-07-26 14:29:01
a00A0000000quNsIAI,SEND_CHANNEL,OPEN,enumPHR1_PHR2BrandPriorityOrder_akt,"",0.007,,,ACCOUNT,2019-07-26 14:29:01,2019-07-26 14:29:01
a00A0000000quNsIAI,SEND_CHANNEL,OPEN,enumPHR3BrandPriorityOrder_akt,"",0.002,,,ACCOUNT,2019-07-26 14:29:01,2019-07-26 14:29:01
a00A0000000quNsIAI,SEND_CHANNEL,OPEN,enumSHR_DSRBrandPriorityOrder_akt,"",0.001,,,ACCOUNT,2019-07-26 14:29:01,2019-07-26 14:29:01
a00A0000000quNsIAI,SEND_CHANNEL,OPEN,enumVTETargetPriority_akt,"",0.014,,,ACCOUNT,2019-07-26 14:29:01,2019-07-26 14:29:01
a00A0000000quNsIAI,SEND_CHANNEL,OPEN,estringTRxQuintile_akt,"",0.001,,,ACCOUNT,2019-07-26 14:29:01,2019-07-26 14:29:01
a00A0000000quNsIAI,SEND_CHANNEL,OPEN,eucrisaQuintile_akt,"",0.012,,,ACCOUNT,2019-07-26 14:29:01,2019-07-26 14:29:01
a00A0000000quNsIAI,SEND_CHANNEL,OPEN,facilityId,"",0.065,,,ACCOUNT,2019-07-26 14:29:01,2019-07-26 14:29:01
a00A0000000quNsIAI,SEND_CHANNEL,OPEN,fmdpn_balance_akt,"",0,,,ACCOUNT_PRODUCT,2019-07-26 14:29:01,2019-07-26 14:29:01
a00A0000000quNsIAI,SEND_CHANNEL,OPEN,hasSharedTargetC1C3_akt,"",0.002,,,ACCOUNT,2019-07-26 14:29:01,2019-07-26 14:29:01
a00A0000000quNsIAI,SEND_CHANNEL,OPEN,hasSharedTargetC2C3_akt,"",0.06,,,ACCOUNT,2019-07-26 14:29:01,2019-07-26 14:29:01
a00A0000000quNsIAI,SEND_CHANNEL,OPEN,LoTProxy_akt,"",0.044,,,ACCOUNT_PRODUCT,2019-07-26 14:29:01,2019-07-26 14:29:01
a00A0000000quNsIAI,SEND_CHANNEL,OPEN,LyrChannelFocus_akt,"",0.001,,,ACCOUNT,2019-07-26 14:29:01,2019-07-26 14:29:01
a00A0000000quNsIAI,SEND_CHANNEL,OPEN,nrx3moChange_akt,"",0.017,,,ACCOUNT_PRODUCT,2019-07-26 14:29:01,2019-07-26 14:29:01
a00A0000000quNsIAI,SEND_CHANNEL,OPEN,nrx4wChange_akt,"",0.009,,,ACCOUNT_PRODUCT,2019-07-26 14:29:01,2019-07-26 14:29:01
a00A0000000quNsIAI,SEND_CHANNEL,OPEN,premarinOralNRxQuintile_akt,"",0.002,,,ACCOUNT,2019-07-26 14:29:01,2019-07-26 14:29:01
a00A0000000quNsIAI,SEND_CHANNEL,OPEN,priorityChantix_akt,"",0.01,,,ACCOUNT_PRODUCT,2019-07-26 14:29:01,2019-07-26 14:29:01
a00A0000000quNsIAI,SEND_CHANNEL,OPEN,productPositionList_akt,"",0.02,,,ACCOUNT,2019-07-26 14:29:01,2019-07-26 14:29:01
a00A0000000quNsIAI,SEND_CHANNEL,OPEN,pvcTRxQuintile_akt,"",0.001,,,ACCOUNT,2019-07-26 14:29:01,2019-07-26 14:29:01
a00A0000000quNsIAI,SEND_CHANNEL,OPEN,trx3moChange_akt,"",0.012,,,ACCOUNT_PRODUCT,2019-07-26 14:29:01,2019-07-26 14:29:01
a00A0000000quNsIAI,SEND_CHANNEL,OPEN,trx4wChange_akt,"",0.015,,,ACCOUNT_PRODUCT,2019-07-26 14:29:01,2019-07-26 14:29:01
a00A0000000quNsIAI,SEND_CHANNEL,OPEN,visitsGoalChx_akt,"",0.147,,,ACCOUNT_PRODUCT,2019-07-26 14:29:01,2019-07-26 14:29:01
a00A0000000quNsIAI,SEND_CHANNEL,OPEN,visitsRemainingChx_akt,"",0.025,,,ACCOUNT_PRODUCT,2019-07-26 14:29:01,2019-07-26 14:29:01
a00A0000000quNsIAI,SEND_CHANNEL,OPEN,whBrandPriorities_akt,"",0.001,,,ACCOUNT,2019-07-26 14:29:01,2019-07-26 14:29:01
a00A0000000quNsIAI,SEND_CHANNEL,OPEN,xtandiBrandPriority_akt,"",0.005,,,ACCOUNT,2019-07-26 14:29:01,2019-07-26 14:29:01
a00A00000095y22IAA,SEND_CHANNEL,CLICK,barrierLyrica_akt,"",0.076,,,ACCOUNT,2019-07-26 14:33:07,2019-07-26 14:33:07
a00A00000095y22IAA,SEND_CHANNEL,CLICK,barrierLyricaTop1_akt,"",0.014,,,ACCOUNT,2019-07-26 14:33:07,2019-07-26 14:33:07
a00A00000095y22IAA,SEND_CHANNEL,CLICK,barrierLyricaTop2_akt,"",0.083,,,ACCOUNT,2019-07-26 14:33:07,2019-07-26 14:33:07
a00A00000095y22IAA,SEND_CHANNEL,CLICK,barrierLyricaTop3_akt,"",0.834,,,ACCOUNT,2019-07-26 14:33:07,2019-07-26 14:33:07
a00A00000095y22IAA,SEND_CHANNEL,CLICK,bosSegment_akt,"",0,,,ACCOUNT,2019-07-26 14:33:07,2019-07-26 14:33:07
a00A00000095y22IAA,SEND_CHANNEL,CLICK,brandFlag_akt,"",0.16,,,ACCOUNT,2019-07-26 14:33:07,2019-07-26 14:33:07
a00A00000095y22IAA,SEND_CHANNEL,CLICK,channelPreferenceNeg_akt,"",0.002,,,ACCOUNT,2019-07-26 14:33:07,2019-07-26 14:33:07
a00A00000095y22IAA,SEND_CHANNEL,CLICK,channelPreferencePos_akt,"",0.005,,,ACCOUNT,2019-07-26 14:33:07,2019-07-26 14:33:07
a00A00000095y22IAA,SEND_CHANNEL,CLICK,chxEucBalanceFlag_akt,"",0.037,,,ACCOUNT,2019-07-26 14:33:07,2019-07-26 14:33:07
a00A00000095y22IAA,SEND_CHANNEL,CLICK,dblAetna12mMedDTRxMktShare_akt,"",0.031,,,ACCOUNT_PRODUCT,2019-07-26 14:33:07,2019-07-26 14:33:07
a00A00000095y22IAA,SEND_CHANNEL,CLICK,dblElq2mg3mTRxCurrShare_akt,"",0.012,,,ACCOUNT_PRODUCT,2019-07-26 14:33:07,2019-07-26 14:33:07
a00A00000095y22IAA,SEND_CHANNEL,CLICK,dblELQ3mNRxCurrMedDShareChgPct_akt,"",0.026,,,ACCOUNT_PRODUCT,2019-07-26 14:33:07,2019-07-26 14:33:07
a00A00000095y22IAA,SEND_CHANNEL,CLICK,dblElq3mNRxCurrMktShare_akt,"",0.023,,,ACCOUNT_PRODUCT,2019-07-26 14:33:07,2019-07-26 14:33:07
a00A00000095y22IAA,SEND_CHANNEL,CLICK,dblElq3mNRxPrevMktShare_akt,"",0.059,,,ACCOUNT_PRODUCT,2019-07-26 14:33:07,2019-07-26 14:33:07
a00A00000095y22IAA,SEND_CHANNEL,CLICK,dblElq3mNRxShareChgPct_akt,"",0.049,,,ACCOUNT_PRODUCT,2019-07-26 14:33:07,2019-07-26 14:33:07
a00A00000095y22IAA,SEND_CHANNEL,CLICK,dblELQ3mTRxCurrComMktShare_akt,"",0.079,,,ACCOUNT_PRODUCT,2019-07-26 14:33:07,2019-07-26 14:33:07
a00A00000095y22IAA,SEND_CHANNEL,CLICK,dblELQ3mTRxCurrMedDMktShare_akt,"",0.03,,,ACCOUNT_PRODUCT,2019-07-26 14:33:07,2019-07-26 14:33:07
a00A00000095y22IAA,SEND_CHANNEL,CLICK,dblElq3mTRxCurrMktShare_akt,"",0.027,,,ACCOUNT_PRODUCT,2019-07-26 14:33:07,2019-07-26 14:33:07
a00A00000095y22IAA,SEND_CHANNEL,CLICK,dblElq3mTRxPrevMktShare_akt,"",0.035,,,ACCOUNT_PRODUCT,2019-07-26 14:33:07,2019-07-26 14:33:07
a00A00000095y22IAA,SEND_CHANNEL,CLICK,dblElq3mTRxShareChgPct_akt,"",0.086,,,ACCOUNT_PRODUCT,2019-07-26 14:33:07,2019-07-26 14:33:07
a00A00000095y22IAA,SEND_CHANNEL,CLICK,dblElq4wNRxCurrMktShare_akt,"",0.063,,,ACCOUNT_PRODUCT,2019-07-26 14:33:07,2019-07-26 14:33:07
a00A00000095y22IAA,SEND_CHANNEL,CLICK,dblElq4wNRxPrevMktShare_akt,"",0.031,,,ACCOUNT_PRODUCT,2019-07-26 14:33:07,2019-07-26 14:33:07
a00A00000095y22IAA,SEND_CHANNEL,CLICK,dblElq4wNRxShareChgPct_akt,"",0.123,,,ACCOUNT_PRODUCT,2019-07-26 14:33:07,2019-07-26 14:33:07
a00A00000095y22IAA,SEND_CHANNEL,CLICK,dblElq4wTRxCurrMktShare_akt,"",0.034,,,ACCOUNT_PRODUCT,2019-07-26 14:33:07,2019-07-26 14:33:07
a00A00000095y22IAA,SEND_CHANNEL,CLICK,dblElq4wTRxPrevMktShare_akt,"",0.045,,,ACCOUNT_PRODUCT,2019-07-26 14:33:07,2019-07-26 14:33:07
a00A00000095y22IAA,SEND_CHANNEL,CLICK,dblElq4wTRxShareChgPct_akt,"",0.018,,,ACCOUNT_PRODUCT,2019-07-26 14:33:07,2019-07-26 14:33:07
a00A00000095y22IAA,SEND_CHANNEL,CLICK,dblLyrComAccessPct_akt,"",0.254,,,ACCOUNT_PRODUCT,2019-07-26 14:33:07,2019-07-26 14:33:07
a00A00000095y22IAA,SEND_CHANNEL,CLICK,dblLyrMedDAccessPct_akt,"",0.018,,,ACCOUNT_PRODUCT,2019-07-26 14:33:07,2019-07-26 14:33:07
a00A00000095y22IAA,SEND_CHANNEL,CLICK,dblLyrOverallAccessPct_akt,"",0.099,,,ACCOUNT_PRODUCT,2019-07-26 14:33:07,2019-07-26 14:33:07
a00A00000095y22IAA,SEND_CHANNEL,CLICK,dblNOAC3mNRxCurrMktShare_akt,"",0.028,,,ACCOUNT_PRODUCT,2019-07-26 14:33:07,2019-07-26 14:33:07
a00A00000095y22IAA,SEND_CHANNEL,CLICK,dblNOAC3mNRxPrevMktShare_akt,"",0.055,,,ACCOUNT_PRODUCT,2019-07-26 14:33:07,2019-07-26 14:33:07
a00A00000095y22IAA,SEND_CHANNEL,CLICK,dblNOAC3mNRxShareChgPct_akt,"",0.029,,,ACCOUNT_PRODUCT,2019-07-26 14:33:07,2019-07-26 14:33:07
a00A00000095y22IAA,SEND_CHANNEL,CLICK,dblNOAC3mNRxVolume_akt,"",0.03,,,ACCOUNT_PRODUCT,2019-07-26 14:33:07,2019-07-26 14:33:07
a00A00000095y22IAA,SEND_CHANNEL,CLICK,dblNOAC3mTRxCurrMktShare_akt,"",0.063,,,ACCOUNT_PRODUCT,2019-07-26 14:33:07,2019-07-26 14:33:07
a00A00000095y22IAA,SEND_CHANNEL,CLICK,dblNOAC3mTRxPrevMktShare_akt,"",0.016,,,ACCOUNT_PRODUCT,2019-07-26 14:33:07,2019-07-26 14:33:07
a00A00000095y22IAA,SEND_CHANNEL,CLICK,dblOAC3mTRxComBusPct_akt,"",0.051,,,ACCOUNT_PRODUCT,2019-07-26 14:33:07,2019-07-26 14:33:07
a00A00000095y22IAA,SEND_CHANNEL,CLICK,dblOAC3mTRxMedDBusPct_akt,"",0.071,,,ACCOUNT_PRODUCT,2019-07-26 14:33:07,2019-07-26 14:33:07
a00A00000095y22IAA,SEND_CHANNEL,CLICK,dblSSI12mMedDTRxMktShare_akt,"",0.31,,,ACCOUNT_PRODUCT,2019-07-26 14:33:07,2019-07-26 14:33:07
a00A00000095y22IAA,SEND_CHANNEL,CLICK,dblUHG12mMedDTRxMktShare_akt,"",0.084,,,ACCOUNT_PRODUCT,2019-07-26 14:33:07,2019-07-26 14:33:07
a00A00000095y22IAA,SEND_CHANNEL,CLICK,dblWar3mTRxCurrComMktShare_akt,"",0.033,,,ACCOUNT_PRODUCT,2019-07-26 14:33:07,2019-07-26 14:33:07
a00A00000095y22IAA,SEND_CHANNEL,CLICK,dblWar3mTRxCurrMedDMktShare_akt,"",0.036,,,ACCOUNT_PRODUCT,2019-07-26 14:33:07,2019-07-26 14:33:07
a00A00000095y22IAA,SEND_CHANNEL,CLICK,dblWarfarin3mNRxCurrMktShare_akt,"",0.043,,,ACCOUNT_PRODUCT,2019-07-26 14:33:07,2019-07-26 14:33:07
a00A00000095y22IAA,SEND_CHANNEL,CLICK,dblWarfarin3mNRxPrevMktShare_akt,"",0.023,,,ACCOUNT_PRODUCT,2019-07-26 14:33:07,2019-07-26 14:33:07
a00A00000095y22IAA,SEND_CHANNEL,CLICK,dblWarfarin3mNRxShareChgPct_akt,"",0.421,,,ACCOUNT_PRODUCT,2019-07-26 14:33:07,2019-07-26 14:33:07
a00A00000095y22IAA,SEND_CHANNEL,CLICK,dblWarfarin3mTRxCurrMktShare_akt,"",0.047,,,ACCOUNT_PRODUCT,2019-07-26 14:33:07,2019-07-26 14:33:07
a00A00000095y22IAA,SEND_CHANNEL,CLICK,dblWarfarin3mTRxPrevMktShare_akt,"",0.046,,,ACCOUNT_PRODUCT,2019-07-26 14:33:07,2019-07-26 14:33:07
a00A00000095y22IAA,SEND_CHANNEL,CLICK,dblXar3mTRxCurrComMktShare_akt,"",0.109,,,ACCOUNT_PRODUCT,2019-07-26 14:33:07,2019-07-26 14:33:07
a00A00000095y22IAA,SEND_CHANNEL,CLICK,dblXar3mTRxCurrMedDMktShare_akt,"",0.09,,,ACCOUNT_PRODUCT,2019-07-26 14:33:07,2019-07-26 14:33:07
a00A00000095y22IAA,SEND_CHANNEL,CLICK,dblXarelto3mNRxCurrMktShare_akt,"",0.067,,,ACCOUNT_PRODUCT,2019-07-26 14:33:07,2019-07-26 14:33:07
a00A00000095y22IAA,SEND_CHANNEL,CLICK,dblXarelto4wNRxCurrMktShare_akt,"",0.016,,,ACCOUNT_PRODUCT,2019-07-26 14:33:07,2019-07-26 14:33:07
a00A00000095y22IAA,SEND_CHANNEL,CLICK,driverLyrica_akt,"",0.137,,,ACCOUNT,2019-07-26 14:33:07,2019-07-26 14:33:07
a00A00000095y22IAA,SEND_CHANNEL,CLICK,driverLyricaTop1_akt,"",0.015,,,ACCOUNT,2019-07-26 14:33:07,2019-07-26 14:33:07
a00A00000095y22IAA,SEND_CHANNEL,CLICK,driverLyricaTop2_akt,"",0.128,,,ACCOUNT,2019-07-26 14:33:07,2019-07-26 14:33:07
a00A00000095y22IAA,SEND_CHANNEL,CLICK,driverLyricaTop3_akt,"",1,,,ACCOUNT,2019-07-26 14:33:07,2019-07-26 14:33:07
a00A00000095y22IAA,SEND_CHANNEL,CLICK,duaveeNRxQuintile_akt,"",0.001,,,ACCOUNT,2019-07-26 14:33:07,2019-07-26 14:33:07
a00A00000095y22IAA,SEND_CHANNEL,CLICK,email_akt,"",0.592,,,ACCOUNT,2019-07-26 14:33:07,2019-07-26 14:33:07
a00A00000095y22IAA,SEND_CHANNEL,CLICK,emailUnsubscribe_akt,"",0.022,,,ACCOUNT_PRODUCT,2019-07-26 14:33:07,2019-07-26 14:33:07
a00A00000095y22IAA,SEND_CHANNEL,CLICK,embedaBrandFlag_akt,"",0.006,,,ACCOUNT,2019-07-26 14:33:07,2019-07-26 14:33:07
a00A00000095y22IAA,SEND_CHANNEL,CLICK,enumBrandedPreference_akt,"",0.01,,,ACCOUNT,2019-07-26 14:33:07,2019-07-26 14:33:07
a00A00000095y22IAA,SEND_CHANNEL,CLICK,enumChxZDCPHotList_akt,"",0.098,,,ACCOUNT,2019-07-26 14:33:07,2019-07-26 14:33:07
a00A00000095y22IAA,SEND_CHANNEL,CLICK,enumCL1RemainingODFlag_akt,"",0.004,,,ACCOUNT,2019-07-26 14:33:07,2019-07-26 14:33:07
a00A00000095y22IAA,SEND_CHANNEL,CLICK,enumDuloxetinePreference_akt,"",0.025,,,ACCOUNT,2019-07-26 14:33:07,2019-07-26 14:33:07
a00A00000095y22IAA,SEND_CHANNEL,CLICK,enumHcpSpecialty_akt,"",0.037,,,ACCOUNT,2019-07-26 14:33:07,2019-07-26 14:33:07
a00A00000095y22IAA,SEND_CHANNEL,CLICK,enumLyrDosingCode_akt,"",0.036,,,ACCOUNT,2019-07-26 14:33:07,2019-07-26 14:33:07
a00A00000095y22IAA,SEND_CHANNEL,CLICK,enumLyrInsightCode_akt,"",0.149,,,ACCOUNT,2019-07-26 14:33:07,2019-07-26 14:33:07
a00A00000095y22IAA,SEND_CHANNEL,CLICK,enumLyrInsightSlideCode_akt,"",0.008,,,ACCOUNT,2019-07-26 14:33:07,2019-07-26 14:33:07
a00A00000095y22IAA,SEND_CHANNEL,CLICK,enumParentSpecialty_akt,"",0.289,,,ACCOUNT,2019-07-26 14:33:07,2019-07-26 14:33:07
a00A00000095y22IAA,SEND_CHANNEL,CLICK,enumPHR1_PHR2BrandPriorityOrder_akt,"",0.003,,,ACCOUNT,2019-07-26 14:33:07,2019-07-26 14:33:07
a00A00000095y22IAA,SEND_CHANNEL,CLICK,enumPHR3BrandPriorityOrder_akt,"",0.001,,,ACCOUNT,2019-07-26 14:33:07,2019-07-26 14:33:07
a00A00000095y22IAA,SEND_CHANNEL,CLICK,enumSHR_DSRBrandPriorityOrder_akt,"",0.005,,,ACCOUNT,2019-07-26 14:33:07,2019-07-26 14:33:07
a00A00000095y22IAA,SEND_CHANNEL,CLICK,enumVTETargetPriority_akt,"",0.139,,,ACCOUNT,2019-07-26 14:33:07,2019-07-26 14:33:07
a00A00000095y22IAA,SEND_CHANNEL,CLICK,estringTRxQuintile_akt,"",0.001,,,ACCOUNT,2019-07-26 14:33:07,2019-07-26 14:33:07
a00A00000095y22IAA,SEND_CHANNEL,CLICK,eucrisaQuintile_akt,"",0.044,,,ACCOUNT,2019-07-26 14:33:07,2019-07-26 14:33:07
a00A00000095y22IAA,SEND_CHANNEL,CLICK,facilityId,"",0.267,,,ACCOUNT,2019-07-26 14:33:07,2019-07-26 14:33:07
a00A00000095y22IAA,SEND_CHANNEL,CLICK,fmdpn_balance_akt,"",0,,,ACCOUNT_PRODUCT,2019-07-26 14:33:07,2019-07-26 14:33:07
a00A00000095y22IAA,SEND_CHANNEL,CLICK,hasSharedTargetC1C3_akt,"",0.003,,,ACCOUNT,2019-07-26 14:33:07,2019-07-26 14:33:07
a00A00000095y22IAA,SEND_CHANNEL,CLICK,hasSharedTargetC2C3_akt,"",0.005,,,ACCOUNT,2019-07-26 14:33:07,2019-07-26 14:33:07
a00A00000095y22IAA,SEND_CHANNEL,CLICK,LyrChannelFocus_akt,"",0.067,,,ACCOUNT,2019-07-26 14:33:07,2019-07-26 14:33:07
a00A00000095y22IAA,SEND_CHANNEL,CLICK,premarinOralNRxQuintile_akt,"",0.006,,,ACCOUNT,2019-07-26 14:33:07,2019-07-26 14:33:07
a00A00000095y22IAA,SEND_CHANNEL,CLICK,productPositionList_akt,"",0.005,,,ACCOUNT,2019-07-26 14:33:07,2019-07-26 14:33:07
a00A00000095y22IAA,SEND_CHANNEL,CLICK,pvcTRxQuintile_akt,"",0.006,,,ACCOUNT,2019-07-26 14:33:07,2019-07-26 14:33:07
a00A00000095y22IAA,SEND_CHANNEL,CLICK,visitsGoalElq_akt,"",0.027,,,ACCOUNT_PRODUCT,2019-07-26 14:33:07,2019-07-26 14:33:07
a00A00000095y22IAA,SEND_CHANNEL,CLICK,visitsRemainingElq_akt,"",0.066,,,ACCOUNT_PRODUCT,2019-07-26 14:33:07,2019-07-26 14:33:07
a00A00000095y22IAA,SEND_CHANNEL,CLICK,whBrandPriorities_akt,"",0.006,,,ACCOUNT,2019-07-26 14:33:07,2019-07-26 14:33:07
a00A00000095y22IAA,SEND_CHANNEL,CLICK,xtandiBrandPriority_akt,"",0.077,,,ACCOUNT,2019-07-26 14:33:07,2019-07-26 14:33:07
a00A00000095y22IAA,SEND_CHANNEL,OPEN,barrierLyrica_akt,"",0.066,,,ACCOUNT,2019-07-26 14:31:44,2019-07-26 14:31:44
a00A00000095y22IAA,SEND_CHANNEL,OPEN,barrierLyricaTop1_akt,"",0.005,,,ACCOUNT,2019-07-26 14:31:44,2019-07-26 14:31:44
a00A00000095y22IAA,SEND_CHANNEL,OPEN,barrierLyricaTop2_akt,"",0.063,,,ACCOUNT,2019-07-26 14:31:44,2019-07-26 14:31:44
a00A00000095y22IAA,SEND_CHANNEL,OPEN,barrierLyricaTop3_akt,"",0.576,,,ACCOUNT,2019-07-26 14:31:44,2019-07-26 14:31:44
a00A00000095y22IAA,SEND_CHANNEL,OPEN,bosSegment_akt,"",0,,,ACCOUNT,2019-07-26 14:31:44,2019-07-26 14:31:44
a00A00000095y22IAA,SEND_CHANNEL,OPEN,brandFlag_akt,"",0.079,,,ACCOUNT,2019-07-26 14:31:44,2019-07-26 14:31:44
a00A00000095y22IAA,SEND_CHANNEL,OPEN,channelPreferenceNeg_akt,"",0.004,,,ACCOUNT,2019-07-26 14:31:44,2019-07-26 14:31:44
a00A00000095y22IAA,SEND_CHANNEL,OPEN,channelPreferencePos_akt,"",0.002,,,ACCOUNT,2019-07-26 14:31:44,2019-07-26 14:31:44
a00A00000095y22IAA,SEND_CHANNEL,OPEN,chxEucBalanceFlag_akt,"",0.008,,,ACCOUNT,2019-07-26 14:31:44,2019-07-26 14:31:44
a00A00000095y22IAA,SEND_CHANNEL,OPEN,dblAetna12mMedDTRxMktShare_akt,"",0.029,,,ACCOUNT_PRODUCT,2019-07-26 14:31:44,2019-07-26 14:31:44
a00A00000095y22IAA,SEND_CHANNEL,OPEN,dblElq2mg3mTRxCurrShare_akt,"",0.016,,,ACCOUNT_PRODUCT,2019-07-26 14:31:44,2019-07-26 14:31:44
a00A00000095y22IAA,SEND_CHANNEL,OPEN,dblELQ3mNRxCurrMedDShareChgPct_akt,"",0.035,,,ACCOUNT_PRODUCT,2019-07-26 14:31:44,2019-07-26 14:31:44
a00A00000095y22IAA,SEND_CHANNEL,OPEN,dblElq3mNRxCurrMktShare_akt,"",0.013,,,ACCOUNT_PRODUCT,2019-07-26 14:31:44,2019-07-26 14:31:44
a00A00000095y22IAA,SEND_CHANNEL,OPEN,dblElq3mNRxPrevMktShare_akt,"",0.057,,,ACCOUNT_PRODUCT,2019-07-26 14:31:44,2019-07-26 14:31:44
a00A00000095y22IAA,SEND_CHANNEL,OPEN,dblElq3mNRxShareChgPct_akt,"",0.045,,,ACCOUNT_PRODUCT,2019-07-26 14:31:44,2019-07-26 14:31:44
a00A00000095y22IAA,SEND_CHANNEL,OPEN,dblELQ3mTRxCurrComMktShare_akt,"",0.04,,,ACCOUNT_PRODUCT,2019-07-26 14:31:44,2019-07-26 14:31:44
a00A00000095y22IAA,SEND_CHANNEL,OPEN,dblELQ3mTRxCurrMedDMktShare_akt,"",0.029,,,ACCOUNT_PRODUCT,2019-07-26 14:31:44,2019-07-26 14:31:44
a00A00000095y22IAA,SEND_CHANNEL,OPEN,dblElq3mTRxCurrMktShare_akt,"",0.018,,,ACCOUNT_PRODUCT,2019-07-26 14:31:44,2019-07-26 14:31:44
a00A00000095y22IAA,SEND_CHANNEL,OPEN,dblElq3mTRxPrevMktShare_akt,"",0.024,,,ACCOUNT_PRODUCT,2019-07-26 14:31:44,2019-07-26 14:31:44
a00A00000095y22IAA,SEND_CHANNEL,OPEN,dblElq3mTRxShareChgPct_akt,"",0.017,,,ACCOUNT_PRODUCT,2019-07-26 14:31:44,2019-07-26 14:31:44
a00A00000095y22IAA,SEND_CHANNEL,OPEN,dblElq4wNRxCurrMktShare_akt,"",0.013,,,ACCOUNT_PRODUCT,2019-07-26 14:31:44,2019-07-26 14:31:44
a00A00000095y22IAA,SEND_CHANNEL,OPEN,dblElq4wNRxPrevMktShare_akt,"",0.034,,,ACCOUNT_PRODUCT,2019-07-26 14:31:44,2019-07-26 14:31:44
a00A00000095y22IAA,SEND_CHANNEL,OPEN,dblElq4wNRxShareChgPct_akt,"",0.031,,,ACCOUNT_PRODUCT,2019-07-26 14:31:44,2019-07-26 14:31:44
a00A00000095y22IAA,SEND_CHANNEL,OPEN,dblElq4wTRxCurrMktShare_akt,"",0.022,,,ACCOUNT_PRODUCT,2019-07-26 14:31:44,2019-07-26 14:31:44
a00A00000095y22IAA,SEND_CHANNEL,OPEN,dblElq4wTRxPrevMktShare_akt,"",0.02,,,ACCOUNT_PRODUCT,2019-07-26 14:31:44,2019-07-26 14:31:44
a00A00000095y22IAA,SEND_CHANNEL,OPEN,dblElq4wTRxShareChgPct_akt,"",0.036,,,ACCOUNT_PRODUCT,2019-07-26 14:31:44,2019-07-26 14:31:44
a00A00000095y22IAA,SEND_CHANNEL,OPEN,dblLyrComAccessPct_akt,"",0.024,,,ACCOUNT_PRODUCT,2019-07-26 14:31:44,2019-07-26 14:31:44
a00A00000095y22IAA,SEND_CHANNEL,OPEN,dblLyrMedDAccessPct_akt,"",0.01,,,ACCOUNT_PRODUCT,2019-07-26 14:31:44,2019-07-26 14:31:44
a00A00000095y22IAA,SEND_CHANNEL,OPEN,dblLyrOverallAccessPct_akt,"",0.025,,,ACCOUNT_PRODUCT,2019-07-26 14:31:44,2019-07-26 14:31:44
a00A00000095y22IAA,SEND_CHANNEL,OPEN,dblNOAC3mNRxCurrMktShare_akt,"",0.033,,,ACCOUNT_PRODUCT,2019-07-26 14:31:44,2019-07-26 14:31:44
a00A00000095y22IAA,SEND_CHANNEL,OPEN,dblNOAC3mNRxPrevMktShare_akt,"",0.018,,,ACCOUNT_PRODUCT,2019-07-26 14:31:44,2019-07-26 14:31:44
a00A00000095y22IAA,SEND_CHANNEL,OPEN,dblNOAC3mNRxShareChgPct_akt,"",0.017,,,ACCOUNT_PRODUCT,2019-07-26 14:31:44,2019-07-26 14:31:44
a00A00000095y22IAA,SEND_CHANNEL,OPEN,dblNOAC3mNRxVolume_akt,"",0.037,,,ACCOUNT_PRODUCT,2019-07-26 14:31:44,2019-07-26 14:31:44
a00A00000095y22IAA,SEND_CHANNEL,OPEN,dblNOAC3mTRxCurrMktShare_akt,"",0.023,,,ACCOUNT_PRODUCT,2019-07-26 14:31:44,2019-07-26 14:31:44
a00A00000095y22IAA,SEND_CHANNEL,OPEN,dblNOAC3mTRxPrevMktShare_akt,"",0.02,,,ACCOUNT_PRODUCT,2019-07-26 14:31:44,2019-07-26 14:31:44
a00A00000095y22IAA,SEND_CHANNEL,OPEN,dblOAC3mTRxComBusPct_akt,"",0.035,,,ACCOUNT_PRODUCT,2019-07-26 14:31:44,2019-07-26 14:31:44
a00A00000095y22IAA,SEND_CHANNEL,OPEN,dblOAC3mTRxMedDBusPct_akt,"",0.019,,,ACCOUNT_PRODUCT,2019-07-26 14:31:44,2019-07-26 14:31:44
a00A00000095y22IAA,SEND_CHANNEL,OPEN,dblSSI12mMedDTRxMktShare_akt,"",0.137,,,ACCOUNT_PRODUCT,2019-07-26 14:31:44,2019-07-26 14:31:44
a00A00000095y22IAA,SEND_CHANNEL,OPEN,dblUHG12mMedDTRxMktShare_akt,"",0.091,,,ACCOUNT_PRODUCT,2019-07-26 14:31:44,2019-07-26 14:31:44
a00A00000095y22IAA,SEND_CHANNEL,OPEN,dblWar3mTRxCurrComMktShare_akt,"",0.037,,,ACCOUNT_PRODUCT,2019-07-26 14:31:44,2019-07-26 14:31:44
a00A00000095y22IAA,SEND_CHANNEL,OPEN,dblWar3mTRxCurrMedDMktShare_akt,"",0.029,,,ACCOUNT_PRODUCT,2019-07-26 14:31:44,2019-07-26 14:31:44
a00A00000095y22IAA,SEND_CHANNEL,OPEN,dblWarfarin3mNRxCurrMktShare_akt,"",0.026,,,ACCOUNT_PRODUCT,2019-07-26 14:31:44,2019-07-26 14:31:44
a00A00000095y22IAA,SEND_CHANNEL,OPEN,dblWarfarin3mNRxPrevMktShare_akt,"",0.02,,,ACCOUNT_PRODUCT,2019-07-26 14:31:44,2019-07-26 14:31:44
a00A00000095y22IAA,SEND_CHANNEL,OPEN,dblWarfarin3mNRxShareChgPct_akt,"",0.016,,,ACCOUNT_PRODUCT,2019-07-26 14:31:44,2019-07-26 14:31:44
a00A00000095y22IAA,SEND_CHANNEL,OPEN,dblWarfarin3mTRxCurrMktShare_akt,"",0.017,,,ACCOUNT_PRODUCT,2019-07-26 14:31:44,2019-07-26 14:31:44
a00A00000095y22IAA,SEND_CHANNEL,OPEN,dblWarfarin3mTRxPrevMktShare_akt,"",0.02,,,ACCOUNT_PRODUCT,2019-07-26 14:31:44,2019-07-26 14:31:44
a00A00000095y22IAA,SEND_CHANNEL,OPEN,dblXar3mTRxCurrComMktShare_akt,"",0.023,,,ACCOUNT_PRODUCT,2019-07-26 14:31:44,2019-07-26 14:31:44
a00A00000095y22IAA,SEND_CHANNEL,OPEN,dblXar3mTRxCurrMedDMktShare_akt,"",0.028,,,ACCOUNT_PRODUCT,2019-07-26 14:31:44,2019-07-26 14:31:44
a00A00000095y22IAA,SEND_CHANNEL,OPEN,dblXarelto3mNRxCurrMktShare_akt,"",0.029,,,ACCOUNT_PRODUCT,2019-07-26 14:31:44,2019-07-26 14:31:44
a00A00000095y22IAA,SEND_CHANNEL,OPEN,dblXarelto4wNRxCurrMktShare_akt,"",0.052,,,ACCOUNT_PRODUCT,2019-07-26 14:31:44,2019-07-26 14:31:44
a00A00000095y22IAA,SEND_CHANNEL,OPEN,driverLyrica_akt,"",0.11,,,ACCOUNT,2019-07-26 14:31:44,2019-07-26 14:31:44
a00A00000095y22IAA,SEND_CHANNEL,OPEN,driverLyricaTop1_akt,"",0.008,,,ACCOUNT,2019-07-26 14:31:44,2019-07-26 14:31:44
a00A00000095y22IAA,SEND_CHANNEL,OPEN,driverLyricaTop2_akt,"",0.083,,,ACCOUNT,2019-07-26 14:31:44,2019-07-26 14:31:44
a00A00000095y22IAA,SEND_CHANNEL,OPEN,driverLyricaTop3_akt,"",0.568,,,ACCOUNT,2019-07-26 14:31:44,2019-07-26 14:31:44
a00A00000095y22IAA,SEND_CHANNEL,OPEN,duaveeNRxQuintile_akt,"",0.001,,,ACCOUNT,2019-07-26 14:31:44,2019-07-26 14:31:44
a00A00000095y22IAA,SEND_CHANNEL,OPEN,email_akt,"",1,,,ACCOUNT,2019-07-26 14:31:44,2019-07-26 14:31:44
a00A00000095y22IAA,SEND_CHANNEL,OPEN,emailUnsubscribe_akt,"",0.007,,,ACCOUNT_PRODUCT,2019-07-26 14:31:44,2019-07-26 14:31:44
a00A00000095y22IAA,SEND_CHANNEL,OPEN,embedaBrandFlag_akt,"",0.004,,,ACCOUNT,2019-07-26 14:31:44,2019-07-26 14:31:44
a00A00000095y22IAA,SEND_CHANNEL,OPEN,enumBrandedPreference_akt,"",0.003,,,ACCOUNT,2019-07-26 14:31:44,2019-07-26 14:31:44
a00A00000095y22IAA,SEND_CHANNEL,OPEN,enumChxZDCPHotList_akt,"",0.02,,,ACCOUNT,2019-07-26 14:31:44,2019-07-26 14:31:44
a00A00000095y22IAA,SEND_CHANNEL,OPEN,enumCL1RemainingODFlag_akt,"",0.003,,,ACCOUNT,2019-07-26 14:31:44,2019-07-26 14:31:44
a00A00000095y22IAA,SEND_CHANNEL,OPEN,enumDuloxetinePreference_akt,"",0.004,,,ACCOUNT,2019-07-26 14:31:44,2019-07-26 14:31:44
a00A00000095y22IAA,SEND_CHANNEL,OPEN,enumHcpSpecialty_akt,"",0.106,,,ACCOUNT,2019-07-26 14:31:44,2019-07-26 14:31:44
a00A00000095y22IAA,SEND_CHANNEL,OPEN,enumLyrDosingCode_akt,"",0.022,,,ACCOUNT,2019-07-26 14:31:44,2019-07-26 14:31:44
a00A00000095y22IAA,SEND_CHANNEL,OPEN,enumLyrInsightCode_akt,"",0.083,,,ACCOUNT,2019-07-26 14:31:44,2019-07-26 14:31:44
a00A00000095y22IAA,SEND_CHANNEL,OPEN,enumLyrInsightSlideCode_akt,"",0.009,,,ACCOUNT,2019-07-26 14:31:44,2019-07-26 14:31:44
a00A00000095y22IAA,SEND_CHANNEL,OPEN,enumParentSpecialty_akt,"",0.148,,,ACCOUNT,2019-07-26 14:31:44,2019-07-26 14:31:44
a00A00000095y22IAA,SEND_CHANNEL,OPEN,enumPHR1_PHR2BrandPriorityOrder_akt,"",0.005,,,ACCOUNT,2019-07-26 14:31:44,2019-07-26 14:31:44
a00A00000095y22IAA,SEND_CHANNEL,OPEN,enumPHR3BrandPriorityOrder_akt,"",0.002,,,ACCOUNT,2019-07-26 14:31:44,2019-07-26 14:31:44
a00A00000095y22IAA,SEND_CHANNEL,OPEN,enumSHR_DSRBrandPriorityOrder_akt,"",0.004,,,ACCOUNT,2019-07-26 14:31:44,2019-07-26 14:31:44
a00A00000095y22IAA,SEND_CHANNEL,OPEN,enumVTETargetPriority_akt,"",0.042,,,ACCOUNT,2019-07-26 14:31:44,2019-07-26 14:31:44
a00A00000095y22IAA,SEND_CHANNEL,OPEN,estringTRxQuintile_akt,"",0,,,ACCOUNT,2019-07-26 14:31:44,2019-07-26 14:31:44
a00A00000095y22IAA,SEND_CHANNEL,OPEN,eucrisaQuintile_akt,"",0.027,,,ACCOUNT,2019-07-26 14:31:44,2019-07-26 14:31:44
a00A00000095y22IAA,SEND_CHANNEL,OPEN,facilityId,"",0.056,,,ACCOUNT,2019-07-26 14:31:44,2019-07-26 14:31:44
a00A00000095y22IAA,SEND_CHANNEL,OPEN,fmdpn_balance_akt,"",0,,,ACCOUNT_PRODUCT,2019-07-26 14:31:44,2019-07-26 14:31:44
a00A00000095y22IAA,SEND_CHANNEL,OPEN,hasSharedTargetC1C3_akt,"",0.004,,,ACCOUNT,2019-07-26 14:31:44,2019-07-26 14:31:44
a00A00000095y22IAA,SEND_CHANNEL,OPEN,hasSharedTargetC2C3_akt,"",0.009,,,ACCOUNT,2019-07-26 14:31:44,2019-07-26 14:31:44
a00A00000095y22IAA,SEND_CHANNEL,OPEN,LyrChannelFocus_akt,"",0.007,,,ACCOUNT,2019-07-26 14:31:44,2019-07-26 14:31:44
a00A00000095y22IAA,SEND_CHANNEL,OPEN,premarinOralNRxQuintile_akt,"",0.001,,,ACCOUNT,2019-07-26 14:31:44,2019-07-26 14:31:44
a00A00000095y22IAA,SEND_CHANNEL,OPEN,productPositionList_akt,"",0.013,,,ACCOUNT,2019-07-26 14:31:44,2019-07-26 14:31:44
a00A00000095y22IAA,SEND_CHANNEL,OPEN,pvcTRxQuintile_akt,"",0.001,,,ACCOUNT,2019-07-26 14:31:44,2019-07-26 14:31:44
a00A00000095y22IAA,SEND_CHANNEL,OPEN,visitsGoalElq_akt,"",0.191,,,ACCOUNT_PRODUCT,2019-07-26 14:31:44,2019-07-26 14:31:44
a00A00000095y22IAA,SEND_CHANNEL,OPEN,visitsRemainingElq_akt,"",0.078,,,ACCOUNT_PRODUCT,2019-07-26 14:31:44,2019-07-26 14:31:44
a00A00000095y22IAA,SEND_CHANNEL,OPEN,whBrandPriorities_akt,"",0,,,ACCOUNT,2019-07-26 14:31:44,2019-07-26 14:31:44
a00A00000095y22IAA,SEND_CHANNEL,OPEN,xtandiBrandPriority_akt,"",0.008,,,ACCOUNT,2019-07-26 14:31:44,2019-07-26 14:31:44
