{
  "customer": "lillyus",
  "s3_destination": "s3://aktana-bdp-si/adl/archive3/",
  "s3_load_csv": "s3://aktana-bdp-si/adl/common/data/loading.csv",
  "s3_map_csv": "s3://aktana-bdp-si/adl/common/data/mapping.csv",
  "source_s3_location": "s3://aktana-bdp-rpt/",
  "environment": "uat",
  "archive_folder": "archive_rds",
  "tables": [
    "interaction",
    "interactiontype",
    "repactiontype",
    "call2_vod__c",
    "interactionaccount",
    "interactionproduct",
    "messagetopic",
    "message",
    "sent_email_vod__c",
    "product",
    "productinteractiontype",
    "message",
    "messagetopic",
    "physicalmessage",
    "dserun",
    "dserunrepdate",
    "dserunaccount",
    "dserunrepdatesuggestion",
    "dserunrepdatesuggestiondetail",
    "repaccountassignment",
    "account_dse",
    "account_cs",
    "facility",
    "rep",
    "replocation",
    "repteam",
    "akt_replicense_arc",
    "approved_document_vod__c",
    "accountproduct",
    "suggestions",
    "strategytarget",
    "targetsperiod",
    "targetinglevel",
    "repproductauthorization"
  ],
  "bronze_tables": [
    "emails",
    "visits",
    "product",
    "suggestions",
    "dse_score",
    "rep_account_assignment",
    "rep_product_authorization",
    "account",
    "rep",
    "rep_team_rep",
    "approved_document",
    "accountproduct"
  ]
}